%YAML 1.1
%TAG !u! tag:unity3d.com,2011:
--- !u!1001 &1571560720522341364
PrefabInstance:
  m_ObjectHideFlags: 0
  serializedVersion: 2
  m_Modification:
    m_TransformParent: {fileID: 0}
    m_Modifications:
    - target: {fileID: 1364021498455313812, guid: 35369fcfed45c2e42b2c1d1ba3e47c87,
        type: 3}
      propertyPath: m_Name
      value: Formacion2 Variant
      objectReference: {fileID: 0}
    - target: {fileID: 3545692644321249296, guid: 35369fcfed45c2e42b2c1d1ba3e47c87,
        type: 3}
      propertyPath: m_LocalPosition.x
      value: 0
      objectReference: {fileID: 0}
    - target: {fileID: 3545692645802677134, guid: 35369fcfed45c2e42b2c1d1ba3e47c87,
        type: 3}
      propertyPath: m_LocalPosition.x
      value: 0
      objectReference: {fileID: 0}
    - target: {fileID: 3545692645815749056, guid: 35369fcfed45c2e42b2c1d1ba3e47c87,
        type: 3}
      propertyPath: m_LocalPosition.x
      value: 0
      objectReference: {fileID: 0}
    - target: {fileID: 5479978502770657206, guid: 35369fcfed45c2e42b2c1d1ba3e47c87,
        type: 3}
      propertyPath: m_TagString
      value: Enemy
      objectReference: {fileID: 0}
    - target: {fileID: 8766591360828376989, guid: 35369fcfed45c2e42b2c1d1ba3e47c87,
        type: 3}
      propertyPath: m_LocalPosition.x
      value: 3.0340462
      objectReference: {fileID: 0}
    - target: {fileID: 8766591360828376989, guid: 35369fcfed45c2e42b2c1d1ba3e47c87,
        type: 3}
      propertyPath: m_LocalPosition.y
      value: 0.2445117
      objectReference: {fileID: 0}
    - target: {fileID: 8766591360828376989, guid: 35369fcfed45c2e42b2c1d1ba3e47c87,
        type: 3}
      propertyPath: m_LocalPosition.z
      value: 0
      objectReference: {fileID: 0}
    - target: {fileID: 8766591360828376989, guid: 35369fcfed45c2e42b2c1d1ba3e47c87,
        type: 3}
      propertyPath: m_LocalRotation.x
      value: 0
      objectReference: {fileID: 0}
    - target: {fileID: 8766591360828376989, guid: 35369fcfed45c2e42b2c1d1ba3e47c87,
        type: 3}
      propertyPath: m_LocalRotation.y
      value: 0
      objectReference: {fileID: 0}
    - target: {fileID: 8766591360828376989, guid: 35369fcfed45c2e42b2c1d1ba3e47c87,
        type: 3}
      propertyPath: m_LocalRotation.z
      value: 0
      objectReference: {fileID: 0}
    - target: {fileID: 8766591360828376989, guid: 35369fcfed45c2e42b2c1d1ba3e47c87,
        type: 3}
      propertyPath: m_LocalRotation.w
      value: 1
      objectReference: {fileID: 0}
    - target: {fileID: 8766591360828376989, guid: 35369fcfed45c2e42b2c1d1ba3e47c87,
        type: 3}
      propertyPath: m_RootOrder
      value: 0
      objectReference: {fileID: 0}
    - target: {fileID: 8766591360828376989, guid: 35369fcfed45c2e42b2c1d1ba3e47c87,
        type: 3}
      propertyPath: m_LocalEulerAnglesHint.x
      value: 0
      objectReference: {fileID: 0}
    - target: {fileID: 8766591360828376989, guid: 35369fcfed45c2e42b2c1d1ba3e47c87,
        type: 3}
      propertyPath: m_LocalEulerAnglesHint.y
      value: 0
      objectReference: {fileID: 0}
    - target: {fileID: 8766591360828376989, guid: 35369fcfed45c2e42b2c1d1ba3e47c87,
        type: 3}
      propertyPath: m_LocalEulerAnglesHint.z
      value: 0
      objectReference: {fileID: 0}
    - target: {fileID: 8860374980493017488, guid: 35369fcfed45c2e42b2c1d1ba3e47c87,
        type: 3}
      propertyPath: m_TagString
      value: Enemy
      objectReference: {fileID: 0}
    m_RemovedComponents: []
  m_SourcePrefab: {fileID: 100100000, guid: 35369fcfed45c2e42b2c1d1ba3e47c87, type: 3}
